// Jest Snapshot v1, https://goo.gl/fbAQLP

exports[`<StoreCard /> should match the snapshot 1`] = `
<div
  style={
    Object {
      "border": "black solid 1px",
    }
  }
>
  <p
    className="address-field"
    style={
      Object {
        "color": "palevioletred",
      }
    }
  >
    23 Blue Jays Way
  </p>
  <p
    className="id-field"
  >
    StoreID: 
    1
  </p>
</div>
`;
